8bc5467d250aa5917962e10a4159cb0e5e71a8c78b2f5abcf71562e8697e291f 4
690e4e354dcc49f5bfc2eacbe350f9e29b654f80080a493daad609ae7dff29fa 1
fa90891003843eba0ac65faf399602d705eed3c88a3d5ea534e41155055e1e53 2
7c754a7687bad64eddeabaf42bb36f5cbb2a1ffa44bcecd554451bbb8f38a8e3 5
f7c890d6086dd1f3ca278a0e13035f571edd7a3e074eb37d7738b7f069456f19 3
